DIMENSION: 16
TOUR_SECTION
8 38.24 20.42
1 39.57 26.15
16 40.56 25.32
13 36.26 23.12
12 33.48 10.54
14 37.56 12.19
7 38.42 13.11
6 37.52 20.44
15 41.23 9.1
5 41.17 13.05
9 36.08 -5.21
10 38.47 15.13
4 38.15 15.35
2 37.51 15.17
3 35.49 14.32
11 39.36 19.56
8 38.24 20.42
