#                 parity       value      cycles    time(ns)   total(us)
"                 empty"       65534           6        2.89      189.13
"                   for"       32769         111       13.88      909.53
"                for v2"       32769          66       30.84     2021.22
"                 while"       32769           6       15.58     1021.09
"              while v2"       32769           6       10.59      694.23
"              do while"       32769           8       12.86      842.82
"                   asm"       32769           6       11.17      732.29
"                 arbol"       32769          12        4.82      315.65
"               builtin"       32769           4        3.57      234.15
"                bitset"       32769           6        3.59      235.00
"                      "       65534           4        2.89      189.10
"                      "       65534           4        2.89      189.14
"                      "       65534           6        2.89      189.16
"                      "       65534           6        2.89      189.14
"                      "       65534           4        2.89      189.13
"                      "       65534           6        2.89      189.16
