<?xml version="1.0" encoding="utf-8"  standalone="no"?>
<svg 
 width="600" height="480"
 viewBox="0 0 600 480"
 xmlns="http://www.w3.org/2000/svg"
 xmlns:xlink="http://www.w3.org/1999/xlink"
>

<title>Gnuplot</title>
<desc>Produced by GNUPLOT 5.2 patchlevel 2 </desc>

<g id="gnuplot_canvas">

<rect x="0" y="0" width="600" height="480" fill="#ffffff"/>
<defs>

	<circle id='gpDot' r='0.5' stroke-width='0.5'/>
	<path id='gpPt0' stroke-width='0.222' stroke='currentColor' d='M-1,0 h2 M0,-1 v2'/>
	<path id='gpPt1' stroke-width='0.222' stroke='currentColor' d='M-1,-1 L1,1 M1,-1 L-1,1'/>
	<path id='gpPt2' stroke-width='0.222' stroke='currentColor' d='M-1,0 L1,0 M0,-1 L0,1 M-1,-1 L1,1 M-1,1 L1,-1'/>
	<rect id='gpPt3' stroke-width='0.222' stroke='currentColor' x='-1' y='-1' width='2' height='2'/>
	<rect id='gpPt4' stroke-width='0.222' stroke='currentColor' fill='currentColor' x='-1' y='-1' width='2' height='2'/>
	<circle id='gpPt5' stroke-width='0.222' stroke='currentColor' cx='0' cy='0' r='1'/>
	<use xlink:href='#gpPt5' id='gpPt6' fill='currentColor' stroke='none'/>
	<path id='gpPt7' stroke-width='0.222' stroke='currentColor' d='M0,-1.33 L-1.33,0.67 L1.33,0.67 z'/>
	<use xlink:href='#gpPt7' id='gpPt8' fill='currentColor' stroke='none'/>
	<use xlink:href='#gpPt7' id='gpPt9' stroke='currentColor' transform='rotate(180)'/>
	<use xlink:href='#gpPt9' id='gpPt10' fill='currentColor' stroke='none'/>
	<use xlink:href='#gpPt3' id='gpPt11' stroke='currentColor' transform='rotate(45)'/>
	<use xlink:href='#gpPt11' id='gpPt12' fill='currentColor' stroke='none'/>
	<path id='gpPt13' stroke-width='0.222' stroke='currentColor' d='M0,1.330 L1.265,0.411 L0.782,-1.067 L-0.782,-1.076 L-1.265,0.411 z'/>
	<use xlink:href='#gpPt13' id='gpPt14' fill='currentColor' stroke='none'/>
	<filter id='textbox' filterUnits='objectBoundingBox' x='0' y='0' height='1' width='1'>
	  <feFlood flood-color='#FFFFFF' flood-opacity='1' result='bgnd'/>
	  <feComposite in='SourceGraphic' in2='bgnd' operator='atop'/>
	</filter>
	<filter id='greybox' filterUnits='objectBoundingBox' x='0' y='0' height='1' width='1'>
	  <feFlood flood-color='lightgrey' flood-opacity='1' result='grey'/>
	  <feComposite in='SourceGraphic' in2='grey' operator='atop'/>
	</filter>
</defs>
<g fill="none" color="#FFFFFF" stroke="currentColor" stroke-width="1.00" stroke-linecap="butt" stroke-linejoin="miter">
</g>
<g fill="none" color="black" stroke="currentColor" stroke-width="1.00" stroke-linecap="butt" stroke-linejoin="miter">
</g>
<g fill="none" color="black" stroke="black" stroke-width="0.50" stroke-linecap="butt" stroke-linejoin="miter">
</g>
<g fill="none" color="gray" stroke="currentColor" stroke-width="0.50" stroke-linecap="butt" stroke-linejoin="miter">
	<path stroke='gray' stroke-dasharray='2,4' class="gridline"  d='M80.2,279.4 L515.5,279.4  '/></g>
<g fill="none" color="gray" stroke="gray" stroke-width="1.00" stroke-linecap="butt" stroke-linejoin="miter">
</g>
<g fill="none" color="black" stroke="currentColor" stroke-width="1.00" stroke-linecap="butt" stroke-linejoin="miter">
	<path stroke='black'  d='M80.2,279.4 L89.2,279.4  '/>	<g transform="translate(71.9,283.3)" stroke="none" fill="black" font-family="Arial" font-size="12.00"  text-anchor="end">
		<text><tspan font-family="Arial" > 100</tspan></text>
	</g>
</g>
<g fill="none" color="black" stroke="currentColor" stroke-width="1.00" stroke-linecap="butt" stroke-linejoin="miter">
	<path stroke='black'  d='M80.2,200.7 L84.7,200.7 M80.2,154.7 L84.7,154.7 M80.2,122.1 L84.7,122.1 M80.2,96.8 L84.7,96.8
		M80.2,76.1 L84.7,76.1 M80.2,58.6 L84.7,58.6 M80.2,43.4 L84.7,43.4 M80.2,30.1 L84.7,30.1
		 '/></g>
<g fill="none" color="black" stroke="black" stroke-width="0.50" stroke-linecap="butt" stroke-linejoin="miter">
</g>
<g fill="none" color="gray" stroke="currentColor" stroke-width="0.50" stroke-linecap="butt" stroke-linejoin="miter">
	<path stroke='gray' stroke-dasharray='2,4' class="gridline"  d='M80.2,18.1 L515.5,18.1  '/></g>
<g fill="none" color="gray" stroke="gray" stroke-width="1.00" stroke-linecap="butt" stroke-linejoin="miter">
</g>
<g fill="none" color="black" stroke="currentColor" stroke-width="1.00" stroke-linecap="butt" stroke-linejoin="miter">
	<path stroke='black'  d='M80.2,18.1 L89.2,18.1  '/>	<g transform="translate(71.9,22.0)" stroke="none" fill="black" font-family="Arial" font-size="12.00"  text-anchor="end">
		<text><tspan font-family="Arial" > 1000</tspan></text>
	</g>
</g>
<g fill="none" color="black" stroke="currentColor" stroke-width="1.00" stroke-linecap="butt" stroke-linejoin="miter">
</g>
<g fill="none" color="black" stroke="black" stroke-width="0.50" stroke-linecap="butt" stroke-linejoin="miter">
</g>
<g fill="none" color="gray" stroke="currentColor" stroke-width="0.50" stroke-linecap="butt" stroke-linejoin="miter">
	<path stroke='gray' stroke-dasharray='2,4' class="gridline"  d='M100.0,279.4 L100.0,18.1  '/></g>
<g fill="none" color="gray" stroke="gray" stroke-width="1.00" stroke-linecap="butt" stroke-linejoin="miter">
</g>
<g fill="none" color="black" stroke="currentColor" stroke-width="1.00" stroke-linecap="butt" stroke-linejoin="miter">
	<path stroke='black'  d='M100.0,279.4 L100.0,270.4 M100.0,18.1 L100.0,27.1  '/>	<g transform="translate(103.9,287.7) rotate(270)" stroke="none" fill="black" font-family="Arial" font-size="12.00"  text-anchor="end">
		<text xml:space="preserve"><tspan font-family="Arial"  xml:space="preserve">     popcount00(empty)</tspan></text>
	</g>
</g>
<g fill="none" color="black" stroke="currentColor" stroke-width="1.00" stroke-linecap="butt" stroke-linejoin="miter">
</g>
<g fill="none" color="black" stroke="black" stroke-width="0.50" stroke-linecap="butt" stroke-linejoin="miter">
</g>
<g fill="none" color="gray" stroke="currentColor" stroke-width="0.50" stroke-linecap="butt" stroke-linejoin="miter">
	<path stroke='gray' stroke-dasharray='2,4' class="gridline"  d='M124.7,279.4 L124.7,18.1  '/></g>
<g fill="none" color="gray" stroke="gray" stroke-width="1.00" stroke-linecap="butt" stroke-linejoin="miter">
</g>
<g fill="none" color="black" stroke="currentColor" stroke-width="1.00" stroke-linecap="butt" stroke-linejoin="miter">
	<path stroke='black'  d='M124.7,279.4 L124.7,270.4 M124.7,18.1 L124.7,27.1  '/>	<g transform="translate(128.6,287.7) rotate(270)" stroke="none" fill="black" font-family="Arial" font-size="12.00"  text-anchor="end">
		<text xml:space="preserve"><tspan font-family="Arial"  xml:space="preserve">       popcount01(for)</tspan></text>
	</g>
</g>
<g fill="none" color="black" stroke="currentColor" stroke-width="1.00" stroke-linecap="butt" stroke-linejoin="miter">
</g>
<g fill="none" color="black" stroke="black" stroke-width="0.50" stroke-linecap="butt" stroke-linejoin="miter">
</g>
<g fill="none" color="gray" stroke="currentColor" stroke-width="0.50" stroke-linecap="butt" stroke-linejoin="miter">
	<path stroke='gray' stroke-dasharray='2,4' class="gridline"  d='M149.5,279.4 L149.5,18.1  '/></g>
<g fill="none" color="gray" stroke="gray" stroke-width="1.00" stroke-linecap="butt" stroke-linejoin="miter">
</g>
<g fill="none" color="black" stroke="currentColor" stroke-width="1.00" stroke-linecap="butt" stroke-linejoin="miter">
	<path stroke='black'  d='M149.5,279.4 L149.5,270.4 M149.5,18.1 L149.5,27.1  '/>	<g transform="translate(153.4,287.7) rotate(270)" stroke="none" fill="black" font-family="Arial" font-size="12.00"  text-anchor="end">
		<text xml:space="preserve"><tspan font-family="Arial"  xml:space="preserve">     popcount02(while)</tspan></text>
	</g>
</g>
<g fill="none" color="black" stroke="currentColor" stroke-width="1.00" stroke-linecap="butt" stroke-linejoin="miter">
</g>
<g fill="none" color="black" stroke="black" stroke-width="0.50" stroke-linecap="butt" stroke-linejoin="miter">
</g>
<g fill="none" color="gray" stroke="currentColor" stroke-width="0.50" stroke-linecap="butt" stroke-linejoin="miter">
	<path stroke='gray' stroke-dasharray='2,4' class="gridline"  d='M174.2,279.4 L174.2,45.1 M174.2,27.1 L174.2,18.1  '/></g>
<g fill="none" color="gray" stroke="gray" stroke-width="1.00" stroke-linecap="butt" stroke-linejoin="miter">
</g>
<g fill="none" color="black" stroke="currentColor" stroke-width="1.00" stroke-linecap="butt" stroke-linejoin="miter">
	<path stroke='black'  d='M174.2,279.4 L174.2,270.4 M174.2,18.1 L174.2,27.1  '/>	<g transform="translate(178.1,287.7) rotate(270)" stroke="none" fill="black" font-family="Arial" font-size="12.00"  text-anchor="end">
		<text xml:space="preserve"><tspan font-family="Arial"  xml:space="preserve">    popcount03(inline)</tspan></text>
	</g>
</g>
<g fill="none" color="black" stroke="currentColor" stroke-width="1.00" stroke-linecap="butt" stroke-linejoin="miter">
</g>
<g fill="none" color="black" stroke="black" stroke-width="0.50" stroke-linecap="butt" stroke-linejoin="miter">
</g>
<g fill="none" color="gray" stroke="currentColor" stroke-width="0.50" stroke-linecap="butt" stroke-linejoin="miter">
	<path stroke='gray' stroke-dasharray='2,4' class="gridline"  d='M198.9,279.4 L198.9,45.1 M198.9,27.1 L198.9,18.1  '/></g>
<g fill="none" color="gray" stroke="gray" stroke-width="1.00" stroke-linecap="butt" stroke-linejoin="miter">
</g>
<g fill="none" color="black" stroke="currentColor" stroke-width="1.00" stroke-linecap="butt" stroke-linejoin="miter">
	<path stroke='black'  d='M198.9,279.4 L198.9,270.4 M198.9,18.1 L198.9,27.1  '/>	<g transform="translate(202.8,287.7) rotate(270)" stroke="none" fill="black" font-family="Arial" font-size="12.00"  text-anchor="end">
		<text><tspan font-family="Arial" > popcount04(inline v2)</tspan></text>
	</g>
</g>
<g fill="none" color="black" stroke="currentColor" stroke-width="1.00" stroke-linecap="butt" stroke-linejoin="miter">
</g>
<g fill="none" color="black" stroke="black" stroke-width="0.50" stroke-linecap="butt" stroke-linejoin="miter">
</g>
<g fill="none" color="gray" stroke="currentColor" stroke-width="0.50" stroke-linecap="butt" stroke-linejoin="miter">
	<path stroke='gray' stroke-dasharray='2,4' class="gridline"  d='M223.7,279.4 L223.7,45.1 M223.7,27.1 L223.7,18.1  '/></g>
<g fill="none" color="gray" stroke="gray" stroke-width="1.00" stroke-linecap="butt" stroke-linejoin="miter">
</g>
<g fill="none" color="black" stroke="currentColor" stroke-width="1.00" stroke-linecap="butt" stroke-linejoin="miter">
	<path stroke='black'  d='M223.7,279.4 L223.7,270.4 M223.7,18.1 L223.7,27.1  '/>	<g transform="translate(227.6,287.7) rotate(270)" stroke="none" fill="black" font-family="Arial" font-size="12.00"  text-anchor="end">
		<text><tspan font-family="Arial" >popcount05(0'hallaron)</tspan></text>
	</g>
</g>
<g fill="none" color="black" stroke="currentColor" stroke-width="1.00" stroke-linecap="butt" stroke-linejoin="miter">
</g>
<g fill="none" color="black" stroke="black" stroke-width="0.50" stroke-linecap="butt" stroke-linejoin="miter">
</g>
<g fill="none" color="gray" stroke="currentColor" stroke-width="0.50" stroke-linecap="butt" stroke-linejoin="miter">
	<path stroke='gray' stroke-dasharray='2,4' class="gridline"  d='M248.4,279.4 L248.4,45.1 M248.4,27.1 L248.4,18.1  '/></g>
<g fill="none" color="gray" stroke="gray" stroke-width="1.00" stroke-linecap="butt" stroke-linejoin="miter">
</g>
<g fill="none" color="black" stroke="currentColor" stroke-width="1.00" stroke-linecap="butt" stroke-linejoin="miter">
	<path stroke='black'  d='M248.4,279.4 L248.4,270.4 M248.4,18.1 L248.4,27.1  '/>	<g transform="translate(252.3,287.7) rotate(270)" stroke="none" fill="black" font-family="Arial" font-size="12.00"  text-anchor="end">
		<text xml:space="preserve"><tspan font-family="Arial"  xml:space="preserve">       popcount06(gus)</tspan></text>
	</g>
</g>
<g fill="none" color="black" stroke="currentColor" stroke-width="1.00" stroke-linecap="butt" stroke-linejoin="miter">
</g>
<g fill="none" color="black" stroke="black" stroke-width="0.50" stroke-linecap="butt" stroke-linejoin="miter">
</g>
<g fill="none" color="gray" stroke="currentColor" stroke-width="0.50" stroke-linecap="butt" stroke-linejoin="miter">
	<path stroke='gray' stroke-dasharray='2,4' class="gridline"  d='M273.1,279.4 L273.1,45.1 M273.1,27.1 L273.1,18.1  '/></g>
<g fill="none" color="gray" stroke="gray" stroke-width="1.00" stroke-linecap="butt" stroke-linejoin="miter">
</g>
<g fill="none" color="black" stroke="currentColor" stroke-width="1.00" stroke-linecap="butt" stroke-linejoin="miter">
	<path stroke='black'  d='M273.1,279.4 L273.1,270.4 M273.1,18.1 L273.1,27.1  '/>	<g transform="translate(277.0,287.7) rotate(270)" stroke="none" fill="black" font-family="Arial" font-size="12.00"  text-anchor="end">
		<text><tspan font-family="Arial" > popcount07(wikipedia)</tspan></text>
	</g>
</g>
<g fill="none" color="black" stroke="currentColor" stroke-width="1.00" stroke-linecap="butt" stroke-linejoin="miter">
</g>
<g fill="none" color="black" stroke="black" stroke-width="0.50" stroke-linecap="butt" stroke-linejoin="miter">
</g>
<g fill="none" color="gray" stroke="currentColor" stroke-width="0.50" stroke-linecap="butt" stroke-linejoin="miter">
	<path stroke='gray' stroke-dasharray='2,4' class="gridline"  d='M297.9,279.4 L297.9,45.1 M297.9,27.1 L297.9,18.1  '/></g>
<g fill="none" color="gray" stroke="gray" stroke-width="1.00" stroke-linecap="butt" stroke-linejoin="miter">
</g>
<g fill="none" color="black" stroke="currentColor" stroke-width="1.00" stroke-linecap="butt" stroke-linejoin="miter">
	<path stroke='black'  d='M297.9,279.4 L297.9,270.4 M297.9,18.1 L297.9,27.1  '/>	<g transform="translate(301.8,287.7) rotate(270)" stroke="none" fill="black" font-family="Arial" font-size="12.00"  text-anchor="end">
		<text xml:space="preserve"><tspan font-family="Arial"  xml:space="preserve">    popcount08(Wegner)</tspan></text>
	</g>
</g>
<g fill="none" color="black" stroke="currentColor" stroke-width="1.00" stroke-linecap="butt" stroke-linejoin="miter">
</g>
<g fill="none" color="black" stroke="black" stroke-width="0.50" stroke-linecap="butt" stroke-linejoin="miter">
</g>
<g fill="none" color="gray" stroke="currentColor" stroke-width="0.50" stroke-linecap="butt" stroke-linejoin="miter">
	<path stroke='gray' stroke-dasharray='2,4' class="gridline"  d='M322.6,279.4 L322.6,45.1 M322.6,27.1 L322.6,18.1  '/></g>
<g fill="none" color="gray" stroke="gray" stroke-width="1.00" stroke-linecap="butt" stroke-linejoin="miter">
</g>
<g fill="none" color="black" stroke="currentColor" stroke-width="1.00" stroke-linecap="butt" stroke-linejoin="miter">
	<path stroke='black'  d='M322.6,279.4 L322.6,270.4 M322.6,18.1 L322.6,27.1  '/>	<g transform="translate(326.5,287.7) rotate(270)" stroke="none" fill="black" font-family="Arial" font-size="12.00"  text-anchor="end">
		<text xml:space="preserve"><tspan font-family="Arial"  xml:space="preserve">       popcount09(lt8)</tspan></text>
	</g>
</g>
<g fill="none" color="black" stroke="currentColor" stroke-width="1.00" stroke-linecap="butt" stroke-linejoin="miter">
</g>
<g fill="none" color="black" stroke="black" stroke-width="0.50" stroke-linecap="butt" stroke-linejoin="miter">
</g>
<g fill="none" color="gray" stroke="currentColor" stroke-width="0.50" stroke-linecap="butt" stroke-linejoin="miter">
	<path stroke='gray' stroke-dasharray='2,4' class="gridline"  d='M347.3,279.4 L347.3,45.1 M347.3,27.1 L347.3,18.1  '/></g>
<g fill="none" color="gray" stroke="gray" stroke-width="1.00" stroke-linecap="butt" stroke-linejoin="miter">
</g>
<g fill="none" color="black" stroke="currentColor" stroke-width="1.00" stroke-linecap="butt" stroke-linejoin="miter">
	<path stroke='black'  d='M347.3,279.4 L347.3,270.4 M347.3,18.1 L347.3,27.1  '/>	<g transform="translate(351.2,287.7) rotate(270)" stroke="none" fill="black" font-family="Arial" font-size="12.00"  text-anchor="end">
		<text xml:space="preserve"><tspan font-family="Arial"  xml:space="preserve">    popcount10(lt8 v2)</tspan></text>
	</g>
</g>
<g fill="none" color="black" stroke="currentColor" stroke-width="1.00" stroke-linecap="butt" stroke-linejoin="miter">
</g>
<g fill="none" color="black" stroke="black" stroke-width="0.50" stroke-linecap="butt" stroke-linejoin="miter">
</g>
<g fill="none" color="gray" stroke="currentColor" stroke-width="0.50" stroke-linecap="butt" stroke-linejoin="miter">
	<path stroke='gray' stroke-dasharray='2,4' class="gridline"  d='M372.0,279.4 L372.0,45.1 M372.0,27.1 L372.0,18.1  '/></g>
<g fill="none" color="gray" stroke="gray" stroke-width="1.00" stroke-linecap="butt" stroke-linejoin="miter">
</g>
<g fill="none" color="black" stroke="currentColor" stroke-width="1.00" stroke-linecap="butt" stroke-linejoin="miter">
	<path stroke='black'  d='M372.0,279.4 L372.0,270.4 M372.0,18.1 L372.0,27.1  '/>	<g transform="translate(375.9,287.7) rotate(270)" stroke="none" fill="black" font-family="Arial" font-size="12.00"  text-anchor="end">
		<text xml:space="preserve"><tspan font-family="Arial"  xml:space="preserve">    popcount11(lt8 v3)</tspan></text>
	</g>
</g>
<g fill="none" color="black" stroke="currentColor" stroke-width="1.00" stroke-linecap="butt" stroke-linejoin="miter">
</g>
<g fill="none" color="black" stroke="black" stroke-width="0.50" stroke-linecap="butt" stroke-linejoin="miter">
</g>
<g fill="none" color="gray" stroke="currentColor" stroke-width="0.50" stroke-linecap="butt" stroke-linejoin="miter">
	<path stroke='gray' stroke-dasharray='2,4' class="gridline"  d='M396.8,279.4 L396.8,45.1 M396.8,27.1 L396.8,18.1  '/></g>
<g fill="none" color="gray" stroke="gray" stroke-width="1.00" stroke-linecap="butt" stroke-linejoin="miter">
</g>
<g fill="none" color="black" stroke="currentColor" stroke-width="1.00" stroke-linecap="butt" stroke-linejoin="miter">
	<path stroke='black'  d='M396.8,279.4 L396.8,270.4 M396.8,18.1 L396.8,27.1  '/>	<g transform="translate(400.7,287.7) rotate(270)" stroke="none" fill="black" font-family="Arial" font-size="12.00"  text-anchor="end">
		<text xml:space="preserve"><tspan font-family="Arial"  xml:space="preserve">    popcount12(lt8 v4)</tspan></text>
	</g>
</g>
<g fill="none" color="black" stroke="currentColor" stroke-width="1.00" stroke-linecap="butt" stroke-linejoin="miter">
</g>
<g fill="none" color="black" stroke="black" stroke-width="0.50" stroke-linecap="butt" stroke-linejoin="miter">
</g>
<g fill="none" color="gray" stroke="currentColor" stroke-width="0.50" stroke-linecap="butt" stroke-linejoin="miter">
	<path stroke='gray' stroke-dasharray='2,4' class="gridline"  d='M421.5,279.4 L421.5,45.1 M421.5,27.1 L421.5,18.1  '/></g>
<g fill="none" color="gray" stroke="gray" stroke-width="1.00" stroke-linecap="butt" stroke-linejoin="miter">
</g>
<g fill="none" color="black" stroke="currentColor" stroke-width="1.00" stroke-linecap="butt" stroke-linejoin="miter">
	<path stroke='black'  d='M421.5,279.4 L421.5,270.4 M421.5,18.1 L421.5,27.1  '/>	<g transform="translate(425.4,287.7) rotate(270)" stroke="none" fill="black" font-family="Arial" font-size="12.00"  text-anchor="end">
		<text xml:space="preserve"><tspan font-family="Arial"  xml:space="preserve">      popcount13(lt16)</tspan></text>
	</g>
</g>
<g fill="none" color="black" stroke="currentColor" stroke-width="1.00" stroke-linecap="butt" stroke-linejoin="miter">
</g>
<g fill="none" color="black" stroke="black" stroke-width="0.50" stroke-linecap="butt" stroke-linejoin="miter">
</g>
<g fill="none" color="gray" stroke="currentColor" stroke-width="0.50" stroke-linecap="butt" stroke-linejoin="miter">
	<path stroke='gray' stroke-dasharray='2,4' class="gridline"  d='M446.2,279.4 L446.2,18.1  '/></g>
<g fill="none" color="gray" stroke="gray" stroke-width="1.00" stroke-linecap="butt" stroke-linejoin="miter">
</g>
<g fill="none" color="black" stroke="currentColor" stroke-width="1.00" stroke-linecap="butt" stroke-linejoin="miter">
	<path stroke='black'  d='M446.2,279.4 L446.2,270.4 M446.2,18.1 L446.2,27.1  '/>	<g transform="translate(450.1,287.7) rotate(270)" stroke="none" fill="black" font-family="Arial" font-size="12.00"  text-anchor="end">
		<text xml:space="preserve"><tspan font-family="Arial"  xml:space="preserve">   popcount14(builtin)</tspan></text>
	</g>
</g>
<g fill="none" color="black" stroke="currentColor" stroke-width="1.00" stroke-linecap="butt" stroke-linejoin="miter">
</g>
<g fill="none" color="black" stroke="black" stroke-width="0.50" stroke-linecap="butt" stroke-linejoin="miter">
</g>
<g fill="none" color="gray" stroke="currentColor" stroke-width="0.50" stroke-linecap="butt" stroke-linejoin="miter">
	<path stroke='gray' stroke-dasharray='2,4' class="gridline"  d='M471.0,279.4 L471.0,18.1  '/></g>
<g fill="none" color="gray" stroke="gray" stroke-width="1.00" stroke-linecap="butt" stroke-linejoin="miter">
</g>
<g fill="none" color="black" stroke="currentColor" stroke-width="1.00" stroke-linecap="butt" stroke-linejoin="miter">
	<path stroke='black'  d='M471.0,279.4 L471.0,270.4 M471.0,18.1 L471.0,27.1  '/>	<g transform="translate(474.9,287.7) rotate(270)" stroke="none" fill="black" font-family="Arial" font-size="12.00"  text-anchor="end">
		<text xml:space="preserve"><tspan font-family="Arial"  xml:space="preserve">    popcount15(bitset)</tspan></text>
	</g>
</g>
<g fill="none" color="black" stroke="currentColor" stroke-width="1.00" stroke-linecap="butt" stroke-linejoin="miter">
</g>
<g fill="none" color="black" stroke="black" stroke-width="0.50" stroke-linecap="butt" stroke-linejoin="miter">
</g>
<g fill="none" color="gray" stroke="currentColor" stroke-width="0.50" stroke-linecap="butt" stroke-linejoin="miter">
	<path stroke='gray' stroke-dasharray='2,4' class="gridline"  d='M495.7,279.4 L495.7,18.1  '/></g>
<g fill="none" color="gray" stroke="gray" stroke-width="1.00" stroke-linecap="butt" stroke-linejoin="miter">
</g>
<g fill="none" color="black" stroke="currentColor" stroke-width="1.00" stroke-linecap="butt" stroke-linejoin="miter">
	<path stroke='black'  d='M495.7,279.4 L495.7,270.4 M495.7,18.1 L495.7,27.1  '/>	<g transform="translate(499.6,287.7) rotate(270)" stroke="none" fill="black" font-family="Arial" font-size="12.00"  text-anchor="end">
		<text><tspan font-family="Arial" > popcount16(recursive)</tspan></text>
	</g>
</g>
<g fill="none" color="black" stroke="currentColor" stroke-width="1.00" stroke-linecap="butt" stroke-linejoin="miter">
	<path stroke='black'  d='M515.5,279.4 L506.5,279.4  '/>	<g transform="translate(523.8,283.3)" stroke="none" fill="black" font-family="Arial" font-size="12.00"  text-anchor="start">
		<text><tspan font-family="Arial" > 1</tspan></text>
	</g>
</g>
<g fill="none" color="black" stroke="currentColor" stroke-width="1.00" stroke-linecap="butt" stroke-linejoin="miter">
	<path stroke='black'  d='M515.5,200.7 L511.0,200.7 M515.5,154.7 L511.0,154.7 M515.5,122.1 L511.0,122.1 M515.5,96.8 L511.0,96.8
		M515.5,76.1 L511.0,76.1 M515.5,58.6 L511.0,58.6 M515.5,43.4 L511.0,43.4 M515.5,30.1 L511.0,30.1
		M515.5,18.1 L506.5,18.1  '/>	<g transform="translate(523.8,22.0)" stroke="none" fill="black" font-family="Arial" font-size="12.00"  text-anchor="start">
		<text><tspan font-family="Arial" > 10</tspan></text>
	</g>
</g>
<g fill="none" color="black" stroke="currentColor" stroke-width="1.00" stroke-linecap="butt" stroke-linejoin="miter">
</g>
<g fill="none" color="black" stroke="currentColor" stroke-width="1.00" stroke-linecap="butt" stroke-linejoin="miter">
	<path stroke='black'  d='M80.2,18.1 L80.2,279.4 L515.5,279.4 L515.5,18.1 L80.2,18.1 Z  '/></g>
<g fill="none" color="black" stroke="currentColor" stroke-width="1.00" stroke-linecap="butt" stroke-linejoin="miter">
	<g transform="translate(16.3,148.8) rotate(270)" stroke="none" fill="black" font-family="Arial" font-size="12.00"  text-anchor="middle">
		<text><tspan font-family="Arial" >total time (μs)</tspan></text>
	</g>
</g>
<g fill="none" color="black" stroke="currentColor" stroke-width="1.00" stroke-linecap="butt" stroke-linejoin="miter">
	<g transform="translate(577.5,148.8) rotate(270)" stroke="none" fill="black" font-family="Arial" font-size="12.00"  text-anchor="middle">
		<text><tspan font-family="Arial" >cpu cycles</tspan></text>
	</g>
</g>
<g fill="none" color="black" stroke="currentColor" stroke-width="1.00" stroke-linecap="butt" stroke-linejoin="miter">
</g>
	<g id="gnuplot_plot_1" ><title>total time</title>
<g fill="none" color="black" stroke="currentColor" stroke-width="1.00" stroke-linecap="butt" stroke-linejoin="miter">
	<g transform="translate(239.0,40.0)" stroke="none" fill="black" font-family="Arial" font-size="12.00"  text-anchor="end">
		<text><tspan font-family="Arial" >total time</tspan></text>
	</g>
</g>
<g fill="none" color="black" stroke="currentColor" stroke-width="1.00" stroke-linecap="butt" stroke-linejoin="miter">
	<g stroke='none' shape-rendering='crispEdges'>
		<polygon fill = 'rgb(148,   0, 211)' fill-opacity = '0.100000' points = '247.3,40.6 289.5,40.6 289.5,31.6 247.3,31.6 '/>
	</g>
	<path stroke='rgb(148,   0, 211)'  d='M247.3,40.6 L289.5,40.6 L289.5,31.6 L247.3,31.6 L247.3,40.6 Z  '/></g>
<g fill="none" color="black" stroke="currentColor" stroke-width="1.00" stroke-linecap="butt" stroke-linejoin="miter">
	<g stroke='none' shape-rendering='crispEdges'>
		<polygon fill = 'rgb(148,   0, 211)' fill-opacity = '0.100000' points = '90.1,279.4 110.0,279.4 110.0,208.3 90.1,208.3 '/>
	</g>
	<path stroke='rgb(148,   0, 211)'  d='M90.1,279.4 L90.1,208.4 L109.9,208.4 L109.9,279.4 L90.1,279.4 Z  '/>	<g stroke='none' shape-rendering='crispEdges'>
		<polygon fill = 'rgb(148,   0, 211)' fill-opacity = '0.100000' points = '114.8,279.4 134.7,279.4 134.7,208.3 114.8,208.3 '/>
	</g>
	<path stroke='rgb(148,   0, 211)'  d='M114.8,279.4 L114.8,208.4 L134.6,208.4 L134.6,279.4 L114.8,279.4 Z  '/>	<g stroke='none' shape-rendering='crispEdges'>
		<polygon fill = 'rgb(148,   0, 211)' fill-opacity = '0.100000' points = '139.6,279.4 159.4,279.4 159.4,208.0 139.6,208.0 '/>
	</g>
	<path stroke='rgb(148,   0, 211)'  d='M139.6,279.4 L139.6,208.1 L159.3,208.1 L159.3,279.4 L139.6,279.4 Z  '/>	<g stroke='none' shape-rendering='crispEdges'>
		<polygon fill = 'rgb(148,   0, 211)' fill-opacity = '0.100000' points = '164.3,279.4 184.2,279.4 184.2,208.3 164.3,208.3 '/>
	</g>
	<path stroke='rgb(148,   0, 211)'  d='M164.3,279.4 L164.3,208.4 L184.1,208.4 L184.1,279.4 L164.3,279.4 Z  '/>	<g stroke='none' shape-rendering='crispEdges'>
		<polygon fill = 'rgb(148,   0, 211)' fill-opacity = '0.100000' points = '189.0,279.4 208.9,279.4 208.9,208.3 189.0,208.3 '/>
	</g>
	<path stroke='rgb(148,   0, 211)'  d='M189.0,279.4 L189.0,208.4 L208.8,208.4 L208.8,279.4 L189.0,279.4 Z  '/>	<g stroke='none' shape-rendering='crispEdges'>
		<polygon fill = 'rgb(148,   0, 211)' fill-opacity = '0.100000' points = '213.8,279.4 233.6,279.4 233.6,208.3 213.8,208.3 '/>
	</g>
	<path stroke='rgb(148,   0, 211)'  d='M213.8,279.4 L213.8,208.4 L233.5,208.4 L233.5,279.4 L213.8,279.4 Z  '/>	<g stroke='none' shape-rendering='crispEdges'>
		<polygon fill = 'rgb(148,   0, 211)' fill-opacity = '0.100000' points = '238.5,279.4 258.4,279.4 258.4,208.3 238.5,208.3 '/>
	</g>
	<path stroke='rgb(148,   0, 211)'  d='M238.5,279.4 L238.5,208.4 L258.3,208.4 L258.3,279.4 L238.5,279.4 Z  '/>	<g stroke='none' shape-rendering='crispEdges'>
		<polygon fill = 'rgb(148,   0, 211)' fill-opacity = '0.100000' points = '263.2,279.4 283.1,279.4 283.1,208.3 263.2,208.3 '/>
	</g>
	<path stroke='rgb(148,   0, 211)'  d='M263.2,279.4 L263.2,208.4 L283.0,208.4 L283.0,279.4 L263.2,279.4 Z  '/>	<g stroke='none' shape-rendering='crispEdges'>
		<polygon fill = 'rgb(148,   0, 211)' fill-opacity = '0.100000' points = '288.0,279.4 307.8,279.4 307.8,208.3 288.0,208.3 '/>
	</g>
	<path stroke='rgb(148,   0, 211)'  d='M288.0,279.4 L288.0,208.4 L307.7,208.4 L307.7,279.4 L288.0,279.4 Z  '/>	<g stroke='none' shape-rendering='crispEdges'>
		<polygon fill = 'rgb(148,   0, 211)' fill-opacity = '0.100000' points = '312.7,279.4 332.6,279.4 332.6,208.3 312.7,208.3 '/>
	</g>
	<path stroke='rgb(148,   0, 211)'  d='M312.7,279.4 L312.7,208.4 L332.5,208.4 L332.5,279.4 L312.7,279.4 Z  '/>	<g stroke='none' shape-rendering='crispEdges'>
		<polygon fill = 'rgb(148,   0, 211)' fill-opacity = '0.100000' points = '337.4,279.4 357.3,279.4 357.3,208.3 337.4,208.3 '/>
	</g>
	<path stroke='rgb(148,   0, 211)'  d='M337.4,279.4 L337.4,208.4 L357.2,208.4 L357.2,279.4 L337.4,279.4 Z  '/>	<g stroke='none' shape-rendering='crispEdges'>
		<polygon fill = 'rgb(148,   0, 211)' fill-opacity = '0.100000' points = '362.2,279.4 382.0,279.4 382.0,208.3 362.2,208.3 '/>
	</g>
	<path stroke='rgb(148,   0, 211)'  d='M362.2,279.4 L362.2,208.4 L381.9,208.4 L381.9,279.4 L362.2,279.4 Z  '/>	<g stroke='none' shape-rendering='crispEdges'>
		<polygon fill = 'rgb(148,   0, 211)' fill-opacity = '0.100000' points = '386.9,279.4 406.8,279.4 406.8,208.3 386.9,208.3 '/>
	</g>
	<path stroke='rgb(148,   0, 211)'  d='M386.9,279.4 L386.9,208.4 L406.7,208.4 L406.7,279.4 L386.9,279.4 Z  '/>	<g stroke='none' shape-rendering='crispEdges'>
		<polygon fill = 'rgb(148,   0, 211)' fill-opacity = '0.100000' points = '411.6,279.4 431.5,279.4 431.5,208.3 411.6,208.3 '/>
	</g>
	<path stroke='rgb(148,   0, 211)'  d='M411.6,279.4 L411.6,208.4 L431.4,208.4 L431.4,279.4 L411.6,279.4 Z  '/>	<g stroke='none' shape-rendering='crispEdges'>
		<polygon fill = 'rgb(148,   0, 211)' fill-opacity = '0.100000' points = '436.4,279.4 456.2,279.4 456.2,208.3 436.4,208.3 '/>
	</g>
	<path stroke='rgb(148,   0, 211)'  d='M436.4,279.4 L436.4,208.4 L456.1,208.4 L456.1,279.4 L436.4,279.4 Z  '/>	<g stroke='none' shape-rendering='crispEdges'>
		<polygon fill = 'rgb(148,   0, 211)' fill-opacity = '0.100000' points = '461.1,279.4 481.0,279.4 481.0,208.3 461.1,208.3 '/>
	</g>
	<path stroke='rgb(148,   0, 211)'  d='M461.1,279.4 L461.1,208.4 L480.9,208.4 L480.9,279.4 L461.1,279.4 Z  '/>	<g stroke='none' shape-rendering='crispEdges'>
		<polygon fill = 'rgb(148,   0, 211)' fill-opacity = '0.100000' points = '485.8,279.4 505.7,279.4 505.7,208.2 485.8,208.2 '/>
	</g>
	<path stroke='rgb(148,   0, 211)'  d='M485.8,279.4 L485.8,208.3 L505.6,208.3 L505.6,279.4 L485.8,279.4 Z  '/></g>
	</g>
	<g id="gnuplot_plot_2" ><title>cycles</title>
<g fill="none" color="black" stroke="currentColor" stroke-width="1.00" stroke-linecap="butt" stroke-linejoin="miter">
	<g transform="translate(380.8,40.0)" stroke="none" fill="black" font-family="Arial" font-size="12.00"  text-anchor="end">
		<text><tspan font-family="Arial" >cycles</tspan></text>
	</g>
</g>
<g fill="none" color="black" stroke="currentColor" stroke-width="1.00" stroke-linecap="butt" stroke-linejoin="miter">
	<path stroke='rgb(  0, 158, 115)'  d='M389.1,36.1 L431.3,36.1 M100.0,122.1 L124.7,200.7 L149.5,200.7 L174.2,122.1 L198.9,122.1 L223.7,122.1
		L248.4,122.1 L273.1,200.7 L297.9,200.7 L322.6,200.7 L347.3,122.1 L372.0,122.1 L390.6,279.4 M409.1,279.4
		L421.5,200.7 L446.2,200.7 L471.0,154.7 L487.5,279.4  '/>	<use xlink:href='#gpPt6' transform='translate(100.0,122.1) scale(4.50)' color='rgb(  0, 158, 115)'/>
	<use xlink:href='#gpPt6' transform='translate(124.7,200.7) scale(4.50)' color='rgb(  0, 158, 115)'/>
	<use xlink:href='#gpPt6' transform='translate(149.5,200.7) scale(4.50)' color='rgb(  0, 158, 115)'/>
	<use xlink:href='#gpPt6' transform='translate(174.2,122.1) scale(4.50)' color='rgb(  0, 158, 115)'/>
	<use xlink:href='#gpPt6' transform='translate(198.9,122.1) scale(4.50)' color='rgb(  0, 158, 115)'/>
	<use xlink:href='#gpPt6' transform='translate(223.7,122.1) scale(4.50)' color='rgb(  0, 158, 115)'/>
	<use xlink:href='#gpPt6' transform='translate(248.4,122.1) scale(4.50)' color='rgb(  0, 158, 115)'/>
	<use xlink:href='#gpPt6' transform='translate(273.1,200.7) scale(4.50)' color='rgb(  0, 158, 115)'/>
	<use xlink:href='#gpPt6' transform='translate(297.9,200.7) scale(4.50)' color='rgb(  0, 158, 115)'/>
	<use xlink:href='#gpPt6' transform='translate(322.6,200.7) scale(4.50)' color='rgb(  0, 158, 115)'/>
	<use xlink:href='#gpPt6' transform='translate(347.3,122.1) scale(4.50)' color='rgb(  0, 158, 115)'/>
	<use xlink:href='#gpPt6' transform='translate(372.0,122.1) scale(4.50)' color='rgb(  0, 158, 115)'/>
	<use xlink:href='#gpPt6' transform='translate(421.5,200.7) scale(4.50)' color='rgb(  0, 158, 115)'/>
	<use xlink:href='#gpPt6' transform='translate(446.2,200.7) scale(4.50)' color='rgb(  0, 158, 115)'/>
	<use xlink:href='#gpPt6' transform='translate(471.0,154.7) scale(4.50)' color='rgb(  0, 158, 115)'/>
	<use xlink:href='#gpPt6' transform='translate(410.2,36.1) scale(4.50)' color='rgb(  0, 158, 115)'/>
</g>
	</g>
<g fill="none" color="#FFFFFF" stroke="rgb(  0, 158, 115)" stroke-width="2.00" stroke-linecap="butt" stroke-linejoin="miter">
</g>
<g fill="none" color="black" stroke="currentColor" stroke-width="2.00" stroke-linecap="butt" stroke-linejoin="miter">
</g>
<g fill="none" color="black" stroke="black" stroke-width="1.00" stroke-linecap="butt" stroke-linejoin="miter">
</g>
<g fill="none" color="black" stroke="currentColor" stroke-width="1.00" stroke-linecap="butt" stroke-linejoin="miter">
	<path stroke='black'  d='M80.2,18.1 L80.2,279.4 L515.5,279.4 L515.5,18.1 L80.2,18.1 Z  '/></g>
<g fill="none" color="black" stroke="currentColor" stroke-width="1.00" stroke-linecap="butt" stroke-linejoin="miter">
</g>
</g>
</svg>

