DIMENSION: 16
TOUR_SECTION
1 38.24 20.42
8 39.57 26.15
4 40.56 25.32
2 36.26 23.12
3 33.48 10.54
16 37.56 12.19
13 38.42 13.11
12 37.52 20.44
14 41.23 9.1
15 41.17 13.05
5 36.08 -5.21
7 38.47 15.13
6 38.15 15.35
10 37.51 15.17
9 35.49 14.32
11 39.36 19.56
1 38.24 20.42
